…
``` r
column_names <- c(
  "timestamp", "uid", "source_ip", "source_port", "destination_ip", 
  "destination_port", "protocol", "transaction_id", "query", "qclass", 
  "qclass_name", "qtype", "qtype_name", "rcode", "rcode_name", 
  "AA", "TC", "RD", "RA", "Z", "answers", "TTLS", "rejected"
)

colnames(dns_data) <- column_names
dns_data <- as_tibble(dns_data)
print(dns_data, n = 10)
```

    # A tibble: 320,840 × 23
         timestamp uid         source_ip source_port destination_ip destination_port
             <dbl> <chr>       <chr>           <int> <chr>                     <int>
     1 1331901006. CWGtK431H9… 192.168.…       45658 192.168.27.203              137
     2 1331901015. C36a282Jlj… 192.168.…         137 192.168.202.2…              137
     3 1331901016. C36a282Jlj… 192.168.…         137 192.168.202.2…              137
     4 1331901017. C36a282Jlj… 192.168.…         137 192.168.202.2…              137
     5 1331901006. C36a282Jlj… 192.168.…         137 192.168.202.2…              137
     6 1331901007. C36a282Jlj… 192.168.…         137 192.168.202.2…              137
     7 1331901007. C36a282Jlj… 192.168.…         137 192.168.202.2…              137
     8 1331901006. ClEZCt3GLk… 192.168.…         137 192.168.202.2…              137
     9 1331901007. ClEZCt3GLk… 192.168.…         137 192.168.202.2…              137
    10 1331901008. ClEZCt3GLk… 192.168.…         137 192.168.202.2…              137
    # ℹ 320,830 more rows
    # ℹ 17 more variables: protocol <chr>, transaction_id <int>, query <chr>,
    #   qclass <chr>, qclass_name <chr>, qtype <chr>, qtype_name <chr>,
    #   rcode <chr>, rcode_name <chr>, AA <lgl>, TC <lgl>, RD <lgl>, RA <lgl>,
    #   Z <int>, answers <chr>, TTLS <chr>, rejected <lgl>
…
    `summarise()` has grouped output by 'source_ip'. You can override using the
    `.groups` argument.

    # A tibble: 85 × 3
       source_ip       pd_domains total_requests
       <chr>                <int>          <dbl>
     1 192.168.202.97         284           9104
     2 192.168.202.71          51           1203
     3 192.168.202.84          49           3027
     4 10.10.117.210           47          69031
     5 192.168.202.79          42            895
     6 192.168.202.100         37            578
     7 192.168.202.103         28           6876
     8 192.168.202.110         23           2378
     9 192.168.202.106         21           2051
    10 192.168.202.115         17            897
    # ℹ 75 more rows
…
