…
### Шаг 2. Анализ

#### 1. Определить небезопасные точки доступа (без шифрования – OPN)

``` r
wifi_ap_clean %>% filter(privacy == "OPN")
```

    # A tibble: 42 × 15
       bssid    first_seen          last_seen           channel speed privacy cipher
       <chr>    <dttm>              <dttm>                <dbl> <dbl> <chr>   <chr> 
     1 E8:28:C… 2023-07-28 09:13:03 2023-07-28 11:55:38       6   130 OPN     <NA>  
     2 E8:28:C… 2023-07-28 09:13:06 2023-07-28 11:55:12       6   130 OPN     <NA>  
     3 E8:28:C… 2023-07-28 09:13:06 2023-07-28 11:55:11       6   130 OPN     <NA>  
     4 E8:28:C… 2023-07-28 09:13:06 2023-07-28 11:55:10       6    -1 OPN     <NA>  
     5 00:25:0… 2023-07-28 09:13:06 2023-07-28 11:56:21      44    -1 OPN     <NA>  
     6 E8:28:C… 2023-07-28 09:13:09 2023-07-28 11:56:05      11   130 OPN     <NA>  
     7 E8:28:C… 2023-07-28 09:13:13 2023-07-28 10:27:06       6   130 OPN     <NA>  
     8 E8:28:C… 2023-07-28 09:13:13 2023-07-28 10:39:43       6   130 OPN     <NA>  
     9 E8:28:C… 2023-07-28 09:13:17 2023-07-28 11:52:32       1   130 OPN     <NA>  
    10 E8:28:C… 2023-07-28 09:13:50 2023-07-28 11:43:39      11   130 OPN     <NA>  
    # ℹ 32 more rows
    # ℹ 8 more variables: auth <chr>, power <dbl>, beacons <dbl>, iv_count <dbl>,
    #   lan_ip <chr>, id_length <dbl>, essid <chr>, key <lgl>
…
### 6. Отсортировать точки доступа по частоте отправки запросов (beacons) в единицу времени по их убыванию.

``` r
wifi_ap_clean
```

    # A tibble: 167 × 19
       bssid    first_seen          last_seen           channel speed privacy cipher
       <chr>    <dttm>              <dttm>                <dbl> <dbl> <chr>   <chr> 
     1 BE:F1:7… 2023-07-28 09:13:03 2023-07-28 11:50:50       1   195 WPA2    CCMP  
     2 6E:C7:E… 2023-07-28 09:13:03 2023-07-28 11:55:12       1   130 WPA2    CCMP  
     3 9A:75:A… 2023-07-28 09:13:03 2023-07-28 11:53:31       1   360 WPA2    CCMP  
     4 4A:EC:1… 2023-07-28 09:13:03 2023-07-28 11:04:01       7   360 WPA2    CCMP  
     5 D2:6D:5… 2023-07-28 09:13:03 2023-07-28 10:30:19       6   130 WPA2    CCMP  
     6 E8:28:C… 2023-07-28 09:13:03 2023-07-28 11:55:38       6   130 OPN     <NA>  
     7 BE:F1:7… 2023-07-28 09:13:03 2023-07-28 11:50:44      11   195 WPA2    CCMP  
     8 0A:C5:E… 2023-07-28 09:13:03 2023-07-28 11:36:31      11   130 WPA2    CCMP  
     9 38:1A:5… 2023-07-28 09:13:03 2023-07-28 10:25:02      11   130 WPA2    CCMP  
    10 BE:F1:7… 2023-07-28 09:13:03 2023-07-28 10:29:21       1   195 WPA2    CCMP  
    # ℹ 157 more rows
    # ℹ 12 more variables: auth <chr>, power <dbl>, beacons <dbl>, iv_count <dbl>,
    #   lan_ip <chr>, id_length <dbl>, essid <chr>, key <lgl>, производитель <chr>,
    #   connection_time_sec <dbl>, connection_time_min <dbl>,
    #   connection_time_hours <dbl>
…
